<svg width="512" height="512" xmlns="http://www.w3.org/2000/svg">

 <g>
  <title>background</title>
  <rect fill="none" id="canvas_background" height="402" width="582" y="-1" x="-1"/>
 </g>
 <g>
  <title>Layer 1</title>
  <path fill="#ffffff" id="path13-6" d="m287.297979,249.371449l55.940481,-56.06838l-232.113079,-128.441908c-3.299803,-1.829634 -6.497287,-3.057468 -9.531867,-3.752163l185.704464,188.262451z"/>
  <path fill="#ffffff" id="path15" d="m351.355357,314.310658l70.15481,-38.819471c19.319533,-10.688346 19.319533,-28.183631 0,-38.871977l-68.077456,-37.675108l-58.266903,58.40288l56.189548,56.963676z"/>
  <path fill="#ffffff" id="path17-8" d="m87.186663,62.457999c-6.868868,3.536753 -11.186481,11.575564 -11.186481,23.109392l0,340.972924c0,11.636148 4.394352,19.723425 11.374964,23.210365l192.007883,-192.446779l-192.196366,-194.845902z"/>
  <path fill="#ffffff" id="path19-3" d="m287.250858,265.280781l-185.187482,185.610223c2.894564,-0.71489 5.931837,-1.911759 9.060659,-3.644458l230.050533,-127.300238l-53.92371,-54.665527z"/>
 </g>
</svg>